…
Thankfully the tidytext package by Julia Silge makes mining text in R much more convenient. We can use the tidy_emails to convert the email content into a tidy tibble.

NB: This is not on v0.1.1.

content <- tidy_emails(content)
content

## # A tibble: 10,381 x 2
##       emails
##        <chr>
##  1 C05739545
##  2 C05739545
##  3 C05739545
##  4 C05739545
##  5 C05739545
##  6 C05739545
##  7 C05739545
##  8 C05739546
##  9 C05739546
## 10 C05739546
## # ... with 10,371 more rows, and 1 more variables: content <chr>
…
